{
  "name": "dashboard",
  "$schema": "../../node_modules/nx/schemas/project-schema.json",
  "sourceRoot": "libs/dashboard/src",
  "prefix": "angular-monorepo",
  "tags": [],
  "projectType": "library",
  "targets": {
    "test": {
      "executor": "@nx/jest:jest",
      "outputs": ["{workspaceRoot}/coverage/{projectRoot}"],
      "options": {
        "jestConfig": "libs/dashboard/jest.config.ts"
      }
    },
    "lint": {
      "executor": "@nx/eslint:lint",
      "outputs": ["{options.outputFile}"]
    }
  }
}
